{
    "items": [
        {
            "identifier": "4878f198-36ab-4fe3-8189-19662a9764fa",
            "firstname": "a",
            "lastname": "1",
            "email": "a1@test.de",
            "workshops": [],
            "_links": {
                "self": {
                    "href": "\/attendees\/4878f198-36ab-4fe3-8189-19662a9764fa"
                },
                "collection": {
                    "href": "\/attendees"
                }
            }
        },
        {
            "identifier": "e942ce16-27c2-494f-9d93-03412da980c5",
            "firstname": "b",
            "lastname": "2",
            "email": "b2@test.de",
            "workshops": [],
            "_links": {
                "self": {
                    "href": "\/attendees\/e942ce16-27c2-494f-9d93-03412da980c5"
                },
                "collection": {
                    "href": "\/attendees"
                }
            }
        },
        {
            "identifier": "4714fb8a-83d8-49af-abbf-7c68fc6c9656",
            "firstname": "c",
            "lastname": "3",
            "email": "c3@test.de",
            "workshops": [],
            "_links": {
                "self": {
                    "href": "\/attendees\/4714fb8a-83d8-49af-abbf-7c68fc6c9656"
                },
                "collection": {
                    "href": "\/attendees"
                }
            }
        }
    ],
    "total": 5,
    "count": 3,
    "_links": {
        "self": {
            "href": "\/attendees?page=1&size=3"
        },
        "first": {
            "href": "\/attendees?page=1&size=3"
        },
        "last": {
            "href": "\/attendees?page=2&size=3"
        },
        "next": {
            "href": "\/attendees?page=2&size=3"
        }
    }
}
